{
	"items": [
        {   
            "id": 6,
            "model": "Asus UX331UA-EG160T ",
            "cpu": "Intel® Core™ i5-7200U Processor, 2.5-3.1 GHz, sa 3 MB keš memorije, 2 cores, 4 threads",
            "memorija": "8GB LPDDR3, max 8GB",
            "HDD/SSD": "SATA3 256G M.2 SSD",
            "graficka": "Intel UHD Graphics 620",
            "ekran": "13.3 inch,Ultra Slim 300nits, FullHD, 16:9, Anti-Glare, NTSC:72%, Wide View,1920x1080 piksela",
            "mreza": "LAN 10/100/1000 Mbps, WiFi 802.11ac, Bluetooth 4.2 (Dual band) 2*2",
            "baterija": "50WHrs, 4S1P, 4-ćelije Li-ion",
            "cena": "84.990 din",
            "slika": ""
        }
    ]
}