{
	"items": [
        {   
            "id": 8,
            "model": "HP 15-db0016nm,",
            "cpu": "AMD Ryzen™ 5 2500U, 2-3.6 GHz, sa 2 MB L2 i 4 MB L3 keš memorije, 4 cores, 8 threads",
            "memorija": "4 GB DDR4-2400 SDRAM (1 x 4 GB)",
            "HDD/SSD": "1 TB 5400 rpm SATA",
            "graficka": "AMD Radeon™ Vega 8 Graphics",
            "ekran": "15.6 inch,HD, SVA, Anti-glare, WLED-backlit,1366x768 piksela",
            "mreza": "Integrated 10/100/1000 GbE LAN, 802.11b/g/n/ac (1x1) Wi-Fi, Bluetooth® 4.2 Combo",
            "baterija": "3-ćelije, 41 Wh Li-ion",
            "cena": "54.990 din",
            "slika": ""
        }
    ]
}