{
	"items": [
		{
            "id": 1,
			"model": "Acer Aspire A315-41G-R3S1",
			"cpu": "AMD Ryzen™ 7 2700U, 2.2-3.8 GHz, sa 2 MB keš memorije, 4 cores, 8 threads",
            "memorija": "8 GB DDR4 2400MHz, 2 memorijska slota",
			"HDD/SSD": "1 TB, 5400 rpm",
			"graficka": "AMD Radeon 535 sa 2GB GDDR5 sopstvene memorije",
			"ekran": "15.6 inch,FHD,LED, backlit,LCD, Non-Glare, 1920x1080 piksela",
            "mreza": "1x 10/100/1000 Ethernet LAN, WiFi 802.11ac, Bluetooth® 4.0",
            "baterija": "2-ćelije Li-Polymer",
            "cena": "79.990 din.",
            "slika": ""
		},
		{
            "id": 2,
			"model": "Acer A315-41-R5BB",
			"cpu": "AMD Ryzen™ 3 2200U, 2.5GHz - 3.4GHz, 4MB keš memorije, 2 jezgra, 4 thread-a",
            "memorija": "4GB SO-DIMM DDR4, 2400MHz, 2 slota, maksimalno 16GB",
			"HDD/SSD": "128GB SSD",
			"graficka": "Integrisana Radeon Vega 3",
			"ekran": "15.6 inch,FullHD, AG (AntiGlare), LED backlit HD,1920 x 1080 piksela",
            "mreza": "LAN, WiFi, 802.11b/g/n/ac, Bluetooth 4.2",
            "baterija": "Li-Ion 4 ćelije",
            "cena": "42.190 din.",
            "slika": ""
		},
		{
            "id": 3,
			"model": "Acer A315-41-R5GR",
			"cpu": "AMD Ryzen 3 2200U, 2.50 GHz - 3.40 GHz, 4 MB keš memorije, 2 jezgra, 4 thread-a",
            "memorija": "4 GB DDR4 SDRAM, 16 GB maksimum",
			"HDD/SSD": "1TB SATA HDD, 5400rpm",
			"graficka": "Integrisana AMD Radeon Vega 3",
			"ekran": "15.6 inch,Full HD LCD, ComfyView,1920 x 1080 piksela ",
            "mreza": "Gigabit Ethernet, WiFi 802.11ac, Bluetooth",
            "baterija": "Lithium Polymer, 4810 mAh",
            "cena": "48.090 din.",
            "slika": ""
		},
		{
            "id": 4,
			"model": "Asus UX391UA-EG020R ",
			"cpu": "Intel® Core™ i5-8250U Processor, 1.6-3.4 GHz, sa 6 MB keš memorije, 4 cores, 8 threads",
            "memorija": "8 GB LPDDR3",
			"HDD/SSD":  "SATA3 256G M.2 SSD",
			"graficka": "Intel UHD Graphics 620",
			"ekran": "13.3 inch,Ultra Slim, FullHD, Anti-Glare,Wide View,1920x1080 piksela",
            "mreza": "WiFi 802.11ac+Bluetooth 4.2 (Dual band) 2*2",
            "baterija": "50WHrs, 2S2P, 4-ćelije Li-ion",
            "cena": "119.990 din.",
            "slika": ""
		},
		{
            "id": 5,
			"model": "Asus X540LA ",
			"cpu": "Intel® Core™ i3-5005U Processor, 2.0GHz, sa 3MB keš memorije, 2 cores. 4 threads",
            "memorija": "4GB LPDDR3",
			"HDD/SSD": "256GB SSD SATA3",
			"graficka": "Intel HD Graphics",
			"ekran": "15.6 inch,HD LED glare,1366x768 piksela",
            "mreza": "WiFi 802.11 b/g/n, Bluetooth 4.0",
            "baterija": "33WHrs, 3-ćelije Li-ion",
            "cena": "50.990 din",
            "slika": ""
		},
		{
            "id": 6,
			"model": "Asus UX331UA-EG160T ",
			"cpu": "Intel® Core™ i5-7200U Processor, 2.5-3.1 GHz, sa 3 MB keš memorije, 2 cores, 4 threads",
            "memorija": "8GB LPDDR3, max 8GB",
			"HDD/SSD": "SATA3 256G M.2 SSD",
			"graficka": "Intel UHD Graphics 620",
			"ekran": "13.3 inch,Ultra Slim 300nits, FullHD, 16:9, Anti-Glare, NTSC:72%, Wide View,1920x1080 piksela",
            "mreza": "LAN 10/100/1000 Mbps, WiFi 802.11ac, Bluetooth 4.2 (Dual band) 2*2",
            "baterija": "50WHrs, 4S1P, 4-ćelije Li-ion",
            "cena": "84.990 din",
            "slika": ""
		},
        {
            "id": 7,
			"model": "HP 15-da0056nm",
			"cpu": "Intel® Celeron® N4000 Processor, 1.1-2.6 GHz, sa 4MB keš memorije, 2 cores, 2 threads",
            "memorija": "4 GB DDR4-2400 SDRAM (1 x 4 GB)",
			"HDD/SSD": "500 GB 5400 rpm SATA",
			"graficka": "Intel® UHD Graphics 600",
			"ekran": "SVA, anti-glare, WLED-backlit",
            "mreza": "10/100/1000 GbE LAN, Realtek RTL8821CE 802.11b/g/n/ac (1x1) Wi-Fi®, Bluetooth® 4.2 Combo",
            "baterija": "3-ćelije, 41 Wh Li-ion",
            "cena": "34.990 din",
            "slika": ""
		},
        {   
            "id": 8,
			"model": "HP 15-db0016nm,",
			"cpu": "AMD Ryzen™ 5 2500U, 2-3.6 GHz, sa 2 MB L2 i 4 MB L3 keš memorije, 4 cores, 8 threads",
            "memorija": "4 GB DDR4-2400 SDRAM (1 x 4 GB)",
			"HDD/SSD": "1 TB 5400 rpm SATA",
			"graficka": "AMD Radeon™ Vega 8 Graphics",
			"ekran": "15.6 inch,HD, SVA, Anti-glare, WLED-backlit,1366x768 piksela",
            "mreza": "Integrated 10/100/1000 GbE LAN, 802.11b/g/n/ac (1x1) Wi-Fi, Bluetooth® 4.2 Combo",
            "baterija": "3-ćelije, 41 Wh Li-ion",
            "cena": "54.990 din",
            "slika": ""
		},
        {
            "id": 9,      
			"model": "HP 250 G6 (1WY37EA)",
			"cpu": "Intel® Core™ i7-7500U, 2.70 GHz - 3.50 GHz, 4 MB SmartCache, 2 cores, 4 threads",
            "memorija": "8 GB DDR4-2133 SDRAM (1 x 8 GB)",
			"HDD/SSD": "256GB SSD",
			"graficka": "Intel HD Graphics",
			"ekran": "15.6 inch,Intel HD Graphics,1920x1080 piksela",
            "mreza": "WiFi b/g/n, GigaEthernet 10/100/1000",
            "baterija": "4 ćelije Lithium-Ion",
            "cena": "93.590 din",
            "slika": ""
		}
	]
}