{
	"proizvodi": [
   
 
		{
            "id": 1,
			"model": "Acer Aspire A315-41G-R3S1",
			"kategorija": "acer-opadajuci",
            "cena": "79.990 din.",
            "slika": ""
		},

        {
            "id": 3,
			"model": "Acer A315-41-R5GR",
			"kategorija": "acer-opadajuci",
            "cena": "48.090 din.",
            "slika": ""
		},
		{
            "id": 2,
			"model": "Acer A315-41-R5BB",
			"kategorija": "acer-opadajuci",
            "cena": "42.190 din.",
            "slika": ""
		}  
	]
}